
{
	"loading":"ການໂຫຼດ...",
	"live":"ສົດ",
	"pull_refresh":"ດຶງລົງເພື່ອສົດຊື່ນ",
	"release_refresh":"ປ່ອຍເພື່ອສົດຊື່ນ",
	"last_update":"ປັບປຸງຫຼ້າສຸດ",
	"today":"ໃນມື້ນີ້",
	"yesterday":"ມື້ວານນີ້",
	"match":"ການແຂ່ງຂັນ",
	"event":"ເຫດການ",
	"not_found":"ບໍ່ພົບຂໍ້ມູນ",
	"last_match":"ການແຂ່ງຂັນຫຼ້າສຸດ",
	"last_stat_match":"ສະຖິຕິການແຂ່ງຂັນຫຼ້າສຸດ",
	"stat":"ສະຖິຕິ",
	"table":"ຕາຕະລາງຄະແນນ",
	"all_league":"ທັງຫມົດ",
	"league":"ສະຫະພັນ",
	"date":"ວັນທີ",
	"result":"ຜົນ",
	"result_":"ຜົນການແຂ່ງ",
	"home":"ທີມເຮືອນ",
	"away":"ທີມທັນທີ",
	"draw":"ສະເຫມີ",
	"vote":"votes",
	"goal":"Goal",
	"m":"GP",
	"w":"W",
	"d":"D",
	"l":"L",
	"gf":"GF",
	"ga":"GA",
	"gd":"GD",
	"point":"ຄະແນນ",
	"fixture":"ລ່ວງຫນ້າ",
	"result_last":"ຜົນການແຂ່ງຂັນຫລ້າສຸດ.",
	"total":"ທັງຫມົດ",
	"setting":"ການສ້າງຕັ້ງ",
	"profile":"Profile",
	"lang":"ພາສາ",
	"timezone":"ເຂດທີ່ໃຊ້ເວລາ",
	"sound":"ມີສຽງ",
	"push":"ແຈ້ງເຕືອນ",
	"vibrate":"ສັ່ນ",
	"sort":"ຄັດໂດຍປະ.",
	"add":"ເພີ່ມ",
	"odds_type":"ປະເພດການຕໍ່ສູ້ກັນ",
	"edit":"ແກ້",
	"done":"ແລ້ວ",
	"wait":"ລໍຖ້າ",
	"select_language":"ເລືອກພາສາ",
	"select_timezone":"ເລືອກເຂດເວລາ",
	"retry":"ພະຍາຍາມມັນ",
	"cannot_connect":"ບໍ່ສາມາດເຊື່ອມຕໍ່ກັບເຄືອຂ່າຍ.",
	"update":"ປັບປຸງ",
	"close":"ປິດ",
	"title_update":"ມີລຸ້ນໃຫມ່ອອກມາ. ກະລຸນາສະບັບປັບປຸງ.",
	"livescore":"ເຕະບານ",
	"livemenu":"ສົດ",
	"favorite":" ທີມມັກ",
	"account":"ບັນຊີຜູ້ໃຊ້",
	"apply":"ສະຫມັກ",
	"select_all":"ເລືອກທັງຫມົດ",
	"next_match":"ເກມຕໍ່ໄປ",
	"news":"ຂ່າວ",
	"transfer":"ໂອນຂອງຜູ້ນໄດ້",
	"highlight":"ເຫດການທີ່ສໍາຄັນ.",
	"premiumRealtime":"Premium real time alert",
	"group":"ກຸ່ມ",
	"matches":"ການແຂ່ງຂັນ",
	"top_player":"ຜູ້ນສູງສຸດ",
	"league_table":"ຫມາຍ/ຕາຕະລາງຄະແນນ",
	"join_in":"ຍ້າຍເຂົ້າ",
	"departure":"ຍ້າຍອອກ",
	"title_vote":"ລົງຄະແນນສຽງເພື່ອເບິ່ງຜົນ",
	"title_bet":"ນັນເພື່ອເບິ່ງຜົນ",
	"bet_then":"ທ່ານນັນ. ໃນຮູບແບບຂອງການຕໍ່ລອງ",
	"play":"ຫລິ້ນ",
	"win":"ຊະນະ",
	"avg":"ກະເທີນ",
	"lose":"ແພ້",
	"rank":"ຈັດລໍາດັບ",
	"follow":"ຕິດຕາມ",
	"unfollow":"ຢຸດຕິດຕາມ",
	"follower":"ນີ້",
	"following":"ຕາມ",
	"level":"ຣະດັບ",
	"spirit":"ນໍ້າໃຈ",
	"score":"ຄະແນນ",
	"send":"ສົ່ງ",
	"comment":"ຄໍາເຫັນ",
	"select":"ເລືອກ",
	"bet_only":"ນັນເທົ່ານັ້ນ",
	"is_say":"ດັດແກ້ສະຖານະ",
	"take_photo":" ໃຊ້ຖ່າຍຮູບ",
	"choose_library":"ເລືອກຮູບ",
	"timeline":"Timeline",
	"add_photo":"ເພີ່ມຮູບ",
	"add_comment":"ເພີ່ມຄໍາເຫັນ",
	"like":"ຊອບ",
	"few_minutes_ago":"ສອງສາມນາທີກ່ອນຫນ້ານີ້",
	"minutes_ago":"ນາທີກ່ອນຫນ້ານີ້",
	"hours_ago":"ຊົ່ວໂມງກ່ອນຫນ້ານີ້",
	"days_ago":"ມື້ກ່ອນຫນ້ານີ້",
	"reply":"ຕອບ",
	"feed":"Feed",
	"top_rate":"ອັດຕາສູງສຸດ",
	"top_score":"ຄະແນນສູງສຸດ",
	"friend":"ເພື່ອນ",
	"now":"ປັດຈຸບັນ",
	"2week":" ເປັນແຊ້ມ",
	"alltime":"ທັງຫມົດ",
	"100_match":"100 ຄູ່",
	"200_match":"200 ຄູ່",
	"achieve":"ຜົນສໍາເລັດ",
	"rate":"rate",
	"login":"ເຂົ້າສູ່ລະບົບ ",
	"logout":" ເຊັນອອກ",
	"worldcup":"ເຕະບານໂລກ",
	"no.":"ເລກທີ",
	"player":"ຜູ້ນ",
	"team":"ທີມ",
	"back":"ຄືນ",
	"select_image":"ເອົາຮູບ",
	"take_photo":"ເລືອກເອົາຮູບພາບ",
	"please_wait":"ກະລຸນາລໍຖ້າ...",
	"inappropriate":"ບໍ່ເຫມາະສົມ",
	"nuisance":"ເນື້ອໃນຢ່າງສຸພາບ",
	"repeat_post":" ຕອບຊໍ້າຊ້ອນ",
	"other":"ອື່ນ",
	"delete_post":"ລຶບຕອບຂອງຂ້າພະເຈົ້າ",
	"admin":"Ssporting.com",
	"app_name":"SSporting",
	"title_reset":"ທ່ານຕ້ອງການເພື່ອຟື້ນຟູ SGold ໄວ້ໃນຕອນຕົ້ນຫຼືບໍ່?",
	"title_combo":"ທ່ານຢາກຈະແລກປ່ຽນ cmoboq ແມ່ນ diamondq ຫຼືບໍ່?",
	"ok":"OK",
	"cancel":"ຍົກເລີກ"
}
